%YAML 1.1
%TAG !u! tag:unity3d.com,2011:
--- !u!114 &11400000
MonoBehaviour:
  m_ObjectHideFlags: 0
  m_CorrespondingSourceObject: {fileID: 0}
  m_PrefabInstance: {fileID: 0}
  m_PrefabAsset: {fileID: 0}
  m_GameObject: {fileID: 0}
  m_Enabled: 1
  m_EditorHideFlags: 0
  m_Script: {fileID: 11500000, guid: e6194ee95dedb4d71a8fe738abba0f47, type: 3}
  m_Name: Settings body tissues
  m_EditorClassIdentifier: 
  minSpeed: 5
  maxSpeed: 40
  perceptionRadius: 40
  avoidanceRadius: 30
  maxSteerForce: 30
  alignWeight: 2
  cohesionWeight: 1
  seperateWeight: 2.5
  targetWeight: 2
  obstacleMask:
    serializedVersion: 2
    m_Bits: 256
  boundsRadius: 30
  avoidCollisionWeight: 20
  collisionAvoidDst: 300
